<?xml version="1.0" encoding="UTF-8"?>
<svg data-bbox="90.387 378.88 899.354 322.973" viewBox="0 0 1080 1080" xmlns="http://www.w3.org/2000/svg" data-type="ugc">
    <g>
        <path d="M448.82 537.9h-18.55v-58.04c0-7.42-2.61-13.74-7.82-18.95-5.21-5.21-11.53-7.82-18.95-7.82s-13.74 2.61-18.95 7.82c-5.21 5.21-7.82 11.53-7.82 18.95v58.04h-18.55v-58.04c0-12.54 4.41-23.23 13.25-32.07 8.83-8.83 19.52-13.25 32.07-13.25 12.37 0 23.01 4.42 31.94 13.25 8.92 8.84 13.38 19.52 13.38 32.07v58.04z" fill="#16418f"/>
        <path d="M529.13 536.57c-3.89.89-7.78 1.33-11.66 1.33-10.07 0-19.53-2.92-28.36-8.75-12.02-7.59-19.44-18.46-22.26-32.6a53.6 53.6 0 0 1-1.06-10.6c0-9.89 3-19.26 9.01-28.09 8.13-11.83 19.35-19.17 33.66-22 3.88-.88 7.77-1.32 11.66-1.32 10.07 0 19.52 2.92 28.36 8.75 12.01 7.6 19.44 18.47 22.26 32.6l1.86 9.01-84.54 16.96c3.53 6.36 8.75 11.13 15.64 14.31 4.77 2.12 9.63 3.18 14.58 3.18 2.29 0 4.68-.26 7.16-.79 11.13-2.29 19.35-7.33 24.65-15.11l15.37 10.34c-7.98 12.01-20.08 19.6-36.33 22.78zm20.4-65.99c-3.54-6.36-8.75-11.13-15.64-14.31-4.77-2.12-9.63-3.18-14.58-3.18-2.3 0-4.68.27-7.16.8-7.42 1.59-13.69 5.13-18.82 10.6-5.3 5.48-8.22 11.84-8.75 19.08l64.95-12.99z" fill="#16418f"/>
        <path d="M669.06 449.91v-15.37h18.55V537.9h-18.55v-15.37c-9.19 10.25-20.32 15.37-33.39 15.37-14.49 0-26.77-5.04-36.84-15.11-10.07-10.07-15.11-22.26-15.11-36.57s5.04-26.5 15.11-36.57 22.35-15.11 36.84-15.11c13.07-.01 24.2 5.12 33.39 15.37zm-56.99 12.98c-6.54 6.36-9.8 14.14-9.8 23.32 0 9.19 3.27 16.96 9.8 23.32 6.54 6.54 14.4 9.81 23.59 9.81s17.05-3.27 23.59-9.81c6.54-6.36 9.81-14.13 9.81-23.32s-3.27-16.96-9.81-23.32c-6.54-6.53-14.4-9.81-23.59-9.81-9.19.01-17.05 3.28-23.59 9.81z" fill="#16418f"/>
        <path d="M759.96 453.09c-9.19 0-16.39 2.61-21.6 7.82-5.21 5.21-7.82 11.53-7.82 18.95v58.04h-18.55v-58.04c0-12.54 4.42-23.23 13.25-32.07 8.83-8.83 20.41-13.25 34.72-13.25v18.55z" fill="#16418f"/>
        <path d="M796.8 522.52v15.37h-18.55V378.88h18.55v71.03c9.19-10.25 20.32-15.37 33.39-15.37 14.48 0 26.77 5.04 36.84 15.11 10.07 10.07 15.11 22.26 15.11 36.57s-5.04 26.5-15.11 36.57-22.36 15.11-36.84 15.11c-13.07 0-24.21-5.13-33.39-15.38zm9.81-59.63c-6.54 6.36-9.81 14.14-9.81 23.32 0 9.19 3.27 16.96 9.81 23.32 6.54 6.54 14.4 9.81 23.59 9.81s17.05-3.27 23.59-9.81c6.54-6.36 9.8-14.13 9.8-23.32s-3.27-16.96-9.8-23.32c-6.54-6.53-14.4-9.81-23.59-9.81-9.2.01-17.06 3.28-23.59 9.81z" fill="#16418f"/>
        <path d="M906.52 434.53l31.01 75.8 31.01-75.8h21.2L927.72 585.6h-21.2l20.94-50.88-41.08-100.18h20.14z" fill="#16418f"/>
        <path d="M448.82 700.86h-18.55v-58.04c0-7.42-2.61-13.74-7.82-18.95-5.21-5.21-11.53-7.82-18.95-7.82s-13.74 2.61-18.95 7.82c-5.21 5.21-7.82 11.53-7.82 18.95v58.04h-18.55v-58.04c0-12.54 4.41-23.23 13.25-32.07 8.83-8.83 19.52-13.25 32.07-13.25 12.37 0 23.01 4.42 31.94 13.25 8.92 8.84 13.38 19.53 13.38 32.07v58.04z" fill="#f2aa00"/>
        <path d="M529.13 699.53c-3.89.89-7.78 1.33-11.66 1.33-10.07 0-19.53-2.92-28.36-8.75-12.02-7.59-19.44-18.46-22.26-32.6a53.6 53.6 0 0 1-1.06-10.6c0-9.89 3-19.26 9.01-28.09 8.13-11.83 19.35-19.17 33.66-22 3.88-.88 7.77-1.33 11.66-1.33 10.07 0 19.52 2.92 28.36 8.75 12.01 7.6 19.44 18.46 22.26 32.6l1.86 9.01-84.54 16.96c3.53 6.36 8.75 11.13 15.64 14.31 4.77 2.12 9.63 3.18 14.58 3.18 2.29 0 4.68-.27 7.16-.79 11.13-2.29 19.35-7.33 24.65-15.11l15.37 10.34c-7.98 12.02-20.08 19.61-36.33 22.79zm20.4-65.99c-3.54-6.36-8.75-11.13-15.64-14.31-4.77-2.12-9.63-3.18-14.58-3.18-2.3 0-4.68.26-7.16.79-7.42 1.59-13.69 5.13-18.82 10.6-5.3 5.48-8.22 11.84-8.75 19.08l64.95-12.98z" fill="#f2aa00"/>
        <path d="M662.7 597.5l25.97 70.23 25.44-70.23h20.67l-39.22 103.36h-13.25l-27.3-72.88-27.3 72.88h-13.25L575.24 597.5h20.41l25.44 70.23 26.24-70.23h15.37z" fill="#f2aa00"/>
        <path d="M738.49 674.09l17.76-5.57c4.06 9.19 12.01 13.78 23.85 13.78 15.9 0 23.85-4.15 23.85-12.46 0-5.12-7.29-9.14-21.86-12.06-14.58-2.92-24.56-6.89-29.95-11.93-5.39-5.04-8.08-11-8.08-17.89 0-9.01 3.31-16.34 9.94-22 6.63-5.65 15.33-8.48 26.11-8.48 8.13 0 15.5 2.12 22.13 6.36 6.63 4.24 10.91 9.81 12.86 16.7l-17.76 5.04c-1.77-6.36-7.51-9.54-17.23-9.54-11.66 0-17.49 3.27-17.49 9.81 0 5.83 7.55 10.29 22.66 13.38 15.11 3.09 25.09 7.25 29.95 12.46 4.86 5.21 7.29 11.26 7.29 18.15 0 9.19-3.89 16.66-11.66 22.4-7.78 5.74-18.02 8.61-30.74 8.61-19.28.01-33.15-8.91-41.63-26.76z" fill="#f2aa00"/>
        <linearGradient y2="567.206" x2="166.084" y1="567.206" x1="90.426" gradientUnits="userSpaceOnUse" id="97d85861-6564-41fe-981e-8292bc6e6c41">
            <stop offset="0" stop-color="#21367f"/>
            <stop offset=".283" stop-color="#194e91"/>
            <stop offset=".879" stop-color="#068bc0"/>
            <stop offset=".995" stop-color="#0298ca"/>
        </linearGradient>
        <path d="M128.25 700.69c-20.89 0-37.83-16.94-37.83-37.83V471.55c0-20.89 16.94-37.83 37.83-37.83 20.89 0 37.83 16.94 37.83 37.83v191.31c0 20.9-16.93 37.83-37.83 37.83z" fill="url(#97d85861-6564-41fe-981e-8292bc6e6c41)"/>
        <linearGradient y2="566.9" x2="166.214" y1="566.9" x1="90.556" gradientUnits="userSpaceOnUse" id="7130bb2e-d4c5-4559-9909-1b21bf826bc7">
            <stop offset="0" stop-color="#21367f"/>
            <stop offset=".283" stop-color="#194e91"/>
            <stop offset=".879" stop-color="#068bc0"/>
            <stop offset=".995" stop-color="#0298ca"/>
        </linearGradient>
        <path d="M128.38 700.39c-20.89 0-37.83-16.94-37.83-37.83V471.24c0-20.89 16.94-37.83 37.83-37.83 20.89 0 37.83 16.94 37.83 37.83v191.31c0 20.9-16.93 37.84-37.83 37.84z" fill="url(#7130bb2e-d4c5-4559-9909-1b21bf826bc7)"/>
        <linearGradient gradientTransform="matrix(.7921 -.6103 .7302 .9477 -672.395 -1081.888)" y2="1538.383" x2="-275.731" y1="1538.383" x1="-351.389" gradientUnits="userSpaceOnUse" id="c0c1896d-4f95-4921-9a62-1b32bf551048">
            <stop offset="0" stop-color="#21367f"/>
            <stop offset=".283" stop-color="#194e91"/>
            <stop offset=".879" stop-color="#068bc0"/>
            <stop offset=".995" stop-color="#0298ca"/>
        </linearGradient>
        <path d="M300.1 693.99c-16.55 12.75-40.3 9.67-53.05-6.88L98.27 494.02c-12.75-16.55-9.67-40.3 6.88-53.05s40.3-9.67 53.05 6.88l148.78 193.09c12.75 16.54 9.67 40.29-6.88 53.05z" fill="url(#c0c1896d-4f95-4921-9a62-1b32bf551048)"/>
        <linearGradient gradientTransform="matrix(.7921 -.6103 .7302 .9477 -672.395 -1081.888)" y2="1538.182" x2="-275.565" y1="1538.182" x1="-351.222" gradientUnits="userSpaceOnUse" id="9afd9723-1d76-4f4b-8c1f-2214f5b97b10">
            <stop offset="0" stop-color="#21367f"/>
            <stop offset=".283" stop-color="#194e91"/>
            <stop offset=".879" stop-color="#068bc0"/>
            <stop offset=".995" stop-color="#0298ca"/>
        </linearGradient>
        <path d="M300.08 693.69c-16.55 12.75-40.3 9.67-53.05-6.88L98.25 493.73c-12.75-16.55-9.67-40.3 6.88-53.05s40.3-9.67 53.05 6.88l148.78 193.09c12.75 16.54 9.67 40.29-6.88 53.04z" fill="url(#9afd9723-1d76-4f4b-8c1f-2214f5b97b10)"/>
        <linearGradient y2="484.352" x2="315" y1="484.352" x1="239.375" gradientUnits="userSpaceOnUse" id="68e879ee-516d-4bd8-a230-061e9a123789">
            <stop offset="0" stop-color="#fefc41"/>
            <stop offset="1" stop-color="#fcb026"/>
        </linearGradient>
        <path d="M277.19 484.35c-7.64 0-13.83-6.19-13.83-13.83s6.19-13.83 13.83-13.83 13.83 6.19 13.83 13.83-6.2 13.83-13.83 13.83zm0-50.68c-20.88 0-37.81 16.93-37.81 37.81 0 20.02 26.33 52.2 35.05 62.31a3.589 3.589 0 0 0 5.48-.05c8.66-10.38 35.1-43.59 35.1-62.26-.01-20.88-16.94-37.81-37.82-37.81z" fill="url(#68e879ee-516d-4bd8-a230-061e9a123789)"/>
        <linearGradient y2="484.352" x2="315" y1="484.352" x1="239.375" gradientUnits="userSpaceOnUse" id="4ec5cc62-1c76-49b1-a73d-f37497ec4f9e">
            <stop offset="0" stop-color="#fefc41"/>
            <stop offset="1" stop-color="#fcb026"/>
        </linearGradient>
        <path d="M277.19 484.35c-7.64 0-13.83-6.19-13.83-13.83s6.19-13.83 13.83-13.83 13.83 6.19 13.83 13.83-6.2 13.83-13.83 13.83zm0-50.68c-20.88 0-37.81 16.93-37.81 37.81 0 20.02 26.33 52.2 35.05 62.31a3.589 3.589 0 0 0 5.48-.05c8.66-10.38 35.1-43.59 35.1-62.26-.01-20.88-16.94-37.81-37.82-37.81z" fill="url(#4ec5cc62-1c76-49b1-a73d-f37497ec4f9e)"/>
        <linearGradient y2="484.352" x2="315" y1="484.352" x1="239.375" gradientUnits="userSpaceOnUse" id="c304732b-a059-432a-b187-34d228c330db">
            <stop offset="0" stop-color="#fefc41"/>
            <stop offset="1" stop-color="#fcb026"/>
        </linearGradient>
        <path d="M277.19 484.35c-7.64 0-13.83-6.19-13.83-13.83s6.19-13.83 13.83-13.83 13.83 6.19 13.83 13.83-6.2 13.83-13.83 13.83zm0-50.68c-20.88 0-37.81 16.93-37.81 37.81 0 20.02 26.33 52.2 35.05 62.31a3.589 3.589 0 0 0 5.48-.05c8.66-10.38 35.1-43.59 35.1-62.26-.01-20.88-16.94-37.81-37.82-37.81z" fill="url(#c304732b-a059-432a-b187-34d228c330db)"/>
    </g>
</svg>
