<?xml version="1.0" encoding="UTF-8"?>
<svg data-bbox="0 -440.83 4179.32 2902.017" width="4179.267" height="2461.187" viewBox="0 0 4179.267 2461.187" xmlns="http://www.w3.org/2000/svg" data-type="ugc">
    <g>
        <defs>
            <clipPath clipPathUnits="userSpaceOnUse" id="8ee0bdd0-a7bf-4867-933e-6afc9cc61854">
                <path d="M10932.2 10028.8h10135.5v5725.71H10932.2z"/>
            </clipPath>
        </defs>
        <path d="M3866.845 2436.52l-3472.658-.96s-426.063-529.946 0-1006.063c247.323-276.376 498.136 12.68 649.943-754.233C1132.3 229.825 1672.636.009 2226.619.009c694.828 0 1411.261 361.321 1284.805 1111.88-79.33 470.78 770.712 715.072 355.421 1324.632" fill="#ebeff6"/>
        <path d="M2824.301 1142.938H1442.303V341.696H2824.3v801.242" fill="#2d49a0"/>
        <path d="M2808.979 1124.039H1457.602V360.622h1351.377v763.417" fill="#d6e8f8"/>
        <path d="M2222.368 1162.01H2044.81c-10.489 0-18.998-8.5-18.998-18.986v-18.984h214.948v19.573c0 10.159-8.234 18.397-18.393 18.397" fill="#2d49a0"/>
        <path d="M2128.747 1143.035c0-2.5 2.026-4.527 4.533-4.527a4.525 4.525 0 0 1 4.52 4.527c0 2.5-2.027 4.526-4.52 4.526a4.528 4.528 0 0 1-4.533-4.526" fill="#f68125"/>
        <path d="M2808.979 1124.039H1457.602V360.622h1351.377v763.417" fill="#284191"/>
        <g clip-path="url(#8ee0bdd0-a7bf-4867-933e-6afc9cc61854)" transform="matrix(.13333 0 0 -.13333 0 2461.187)">
            <path d="M30107.832 20706.3H3816.346V6428.93h26291.486V20706.3" fill="#ffffff"/>
            <path d="M28306.447 7389.324l-20909.652 6.1s-3107.205 3480.886-857.988 6664.22c604.525 855.649-1186.663 4565.181-392.849 4851.604 35.945 13.054 4398.381 2553.244 4434.585 2565.264 722.002 239.763 15489.585 599.988 16067.859-219.599 7.626-10.598 391.246-4150.023 398.742-4160.751 48.211-69.796 94.483-141.402 138.3-214.429 6.85-10.986 13.313-22.102 19.775-33.218 346.654-590.035 548.804-1285.928 554.104-2084.705 0-12.15.129-24.429.129-36.708-.388-462.593-66.694-959.437-208.742-1490.146-768.92-2872.148 2339.72-2976.583 755.737-5847.632" fill="#284292"/>
            <path d="M16889.408 11178.405h-6390.62v3195.725c487.72 153.766 1006.836 236.659 1545.329 236.659 590.714 0 1158.116-99.679 1686.246-283.39 848.823-294.995 1596.205-806.547 2176.35-1468.446 427.106-487.41 763.547-1056.469 982.695-1680.548" fill="#8b9ccc"/>
            <path d="M11286.497 14556.14c240.011 94.971 489.144 179.502 745.372 252.985 520.16 148.892 1039.203 243.356 1542.537 280.756 486.813 36.083 938.76 17.535 1343.373-55.137 405.83-72.977 743.953-196.935 1004.843-368.227 272.648-179.096 448.703-402.383 523.605-663.679 74.801-261.296 43.583-543.977-92.842-840.14-72.976-158.42-174.23-317.041-302.852-474.548-101.356-124.263-219.84-247.715-354.746-369.849-304.676-275.89-678.173-531.004-1110.253-758.041-270.52-142.203-556.951-269.506-856.357-380.997l-.507-.203h-162.676l.405.203c1086.942 381.402 1963.57 953.253 2448.66 1552.57 343.495 424.176 490.766 861.932 377.956 1255.802-71.05 248.22-239.605 461.068-500.8 632.664-254.606 167.237-585.736 288.358-984.268 359.915-267.58 48.144-556.343 72.267-862.438 72.267-151.426 0-307.413-5.98-466.947-17.737-499.584-37.097-1014.878-130.952-1531.49-278.83-179.703-51.49-355.961-108.553-527.963-170.786l-232.612-28.987" fill="#ffffff"/>
            <path d="M17966.112 15109.515v-94.67h61.926c9.356 0 17.264 1.225 24.058 3.564 6.794 2.339 12.362 5.457 16.817 9.578 4.567 4.121 7.908 8.91 10.024 14.48 2.228 5.568 3.342 11.582 3.342 18.154 0 7.573-1.003 14.367-2.896 20.382-1.894 6.014-4.9 11.137-9.022 15.37-4.12 4.343-9.467 7.573-16.15 9.8-6.46 2.228-14.367 3.342-23.611 3.342zm0 51.122h53.461c18.489.334 32.188 4.233 41.21 11.695 9.021 7.462 13.477 18.043 13.477 31.854 0 15.927-4.567 27.398-13.811 34.304-9.244 7.017-23.835 10.47-43.66 10.47h-50.677zm-72.283-203.82v350.727h122.96c20.27 0 38.536-1.894 54.575-5.792 16.038-3.898 29.737-9.801 40.875-17.709 11.138-7.908 19.602-17.932 25.505-29.96 5.903-12.03 8.8-26.285 8.8-42.658 0-8.019-1.003-15.704-3.008-23.166-2.005-7.351-5.123-14.257-9.133-20.716-4.12-6.349-9.244-12.252-15.593-17.375-6.237-5.235-13.699-9.579-22.386-12.92 10.358-2.562 19.156-6.46 26.396-11.695 7.35-5.234 13.365-11.249 18.043-18.154a71.204 71.204 0 0 0 10.358-22.498c2.228-8.13 3.23-16.484 3.23-24.949 0-34.08-10.915-59.809-32.745-77.072-22.052-17.375-53.127-26.063-93.668-26.063h-134.21" fill="#ffffff"/>
            <path d="M18280.998 15143.834h58.28c9.525 0 17.802 1.247 24.945 3.742 7.144 2.494 13.153 6.01 17.802 10.545 4.762 4.535 8.39 10.091 10.772 16.44 2.38 6.35 3.628 13.38 3.628 21.317 0 16.441-4.649 29.48-14.06 39.005-9.41 9.411-23.811 14.173-43.313 14.173h-58.054zm57.6-58.62h-57.6v-128.353h-72.227v350.703h130.28c20.297 0 38.325-2.268 54.426-6.804 15.987-4.648 29.594-11.338 40.705-20.296 11.112-8.844 19.616-19.956 25.512-33.108 6.01-13.153 8.958-28.347 8.958-45.695 0-12.926-1.474-24.378-4.309-34.583-2.948-10.204-7.143-19.275-12.472-27.212-5.556-7.937-12.133-14.967-19.843-20.863-7.71-6.01-16.44-11.112-25.965-15.42l75.855-143.32v-3.402h-77.556l-65.764 128.353" fill="#ffffff"/>
            <path d="M18734.477 15108.787h-138.79v-93.908h162.842v-58.002h-235.115v350.658h234.655v-58.577h-162.382v-83.55h138.79v-56.621" fill="#ffffff"/>
            <path d="M18891.833 15087.617h87.65l-44.06 131.357zm107.101-58.473h-126.67l-24.139-72.3h-76.752l130.654 350.717h66.91l131.24-350.716h-76.752l-24.49 72.3" fill="#ffffff"/>
            <path d="M19242.881 15097.614l-37.646-40.506v-100.192h-72.315v350.73h72.315v-159.043l31.809 43.603 89.35 115.44h88.874l-124.495-155.826 128.069-194.904h-85.896l-90.065 140.698" fill="#ffffff"/>
            <path d="M19522.836 14956.888h-72.342v350.572h72.342v-350.572" fill="#ffffff"/>
            <path d="M19875.079 14956.911h-72.306l-140.711 230.698v-230.698h-72.184v350.68h72.184l140.955-231.307v231.307h72.062v-350.68" fill="#ffffff"/>
            <path d="M20215.586 15001.205c-4.093-4.96-9.798-10.294-17.115-15.999-7.193-5.705-16.247-11.038-27.16-15.999-10.915-4.837-23.813-8.93-38.572-12.278-15.006-3.224-31.997-4.837-51.22-4.837-22.697 0-43.284 3.721-62.012 11.162-18.727 7.442-34.85 18.356-48.12 32.866-13.27 14.51-23.689 32.246-30.882 53.206-7.441 21.083-11.038 45.144-11.038 72.304v20.712c0 27.16 3.473 51.221 10.542 72.429 6.945 21.084 16.743 38.819 29.517 53.33 12.899 14.386 28.277 25.424 46.509 32.99 18.107 7.565 38.198 11.285 60.398 11.285 22.696 0 42.416-2.852 59.035-8.557 16.743-5.705 30.633-13.643 41.671-23.937 11.286-10.293 19.968-22.572 26.293-36.834 6.2-14.387 10.294-30.013 12.154-47.004h-70.32c-1.365 8.805-3.721 16.867-6.698 23.936-3.1 7.193-7.317 13.27-12.526 18.355-5.333 5.085-11.906 8.93-19.595 11.658-7.814 2.729-17.115 4.093-27.905 4.093-24.68 0-43.408-9.302-56.306-28.03-12.899-18.726-19.224-46.507-19.224-83.218v-21.208c0-36.834 6.822-64.615 20.836-83.342 14.014-18.852 34.478-28.153 61.39-28.153 8.806 0 16.248.496 22.697 1.612 6.449 1.116 11.906 2.604 16.495 4.217 4.713 1.736 8.433 3.596 11.41 5.58 3.1 1.985 5.58 3.97 7.565 5.954v60.398h-65.855v53.206h138.036v-139.897" fill="#ffffff"/>
            <path d="M19152.174 14389.04h-72.261l-140.763 230.766v-230.766h-72.144v350.732h72.144l140.88-231.236v231.236h72.144v-350.732" fill="#ffffff"/>
            <path d="M19426.36 14541.071h-138.779v-93.91h162.883v-57.994h-235.076v350.705h234.599v-58.59h-162.406v-83.53h138.779v-56.68" fill="#ffffff"/>
            <path d="M19765.834 14490.203l47.212 249.478h71.976l-77.832-350.61h-72.709l-57.093 234.594-57.093-234.595h-72.708l-77.71 350.611h71.976l47.334-248.99 57.825 248.99h61.24l57.582-249.478" fill="#ffffff"/>
            <path d="M20105.879 14481.05c0 6.067-.867 11.514-2.6 16.465-1.733 4.952-5.2 9.409-10.275 13.618-4.952 4.209-12.008 8.294-20.921 12.255-8.913 4.085-20.426 8.294-34.539 12.751-16.093 5.2-31.196 11.018-45.432 17.331-14.236 6.438-26.74 14.113-37.262 22.778-10.77 8.79-19.188 18.817-25.378 30.206-6.19 11.513-9.284 24.759-9.284 39.986 0 14.731 3.218 27.977 9.532 40.109 6.313 12.132 15.35 22.53 26.74 30.948 11.512 8.542 25.13 15.227 40.975 19.931 15.846 4.704 33.177 7.056 52.117 7.056 19.436 0 37.015-2.6 52.984-8.046 15.846-5.323 29.463-12.875 40.729-22.53 11.265-9.533 19.807-21.046 25.996-34.292 6.066-13.246 9.161-27.73 9.161-43.451h-72.296c0 7.303-1.114 14.236-3.466 20.426-2.352 6.313-5.942 11.636-10.77 16.217-4.828 4.456-10.77 7.922-17.95 10.398-7.304 2.476-15.846 3.714-25.625 3.714-9.409 0-17.703-.99-24.636-3.095-6.932-2.104-12.75-4.951-17.33-8.665-4.581-3.714-8.047-8.047-10.4-12.999-2.351-4.951-3.466-10.275-3.466-15.845 0-11.637 5.943-21.293 17.703-29.092 11.884-7.799 29.092-14.979 51.87-21.788 19.188-5.942 36.024-12.503 50.508-19.807 14.483-7.18 26.615-15.35 36.395-24.51 9.656-9.162 17.084-19.437 21.912-30.826 5.075-11.389 7.551-24.387 7.551-38.747 0-15.474-2.971-29.215-9.037-41.223-6.066-12.009-14.608-22.16-25.625-30.454-11.142-8.294-24.388-14.608-40.11-19.064-15.598-4.457-33.176-6.561-52.488-6.561-11.39 0-23.026.99-34.663 2.97-11.512 1.982-22.53 5.076-33.053 9.285-10.522 4.21-20.302 9.409-29.339 15.598-8.913 6.314-16.836 13.742-23.397 22.16-6.685 8.541-11.884 18.197-15.722 29.091-3.713 10.77-5.57 22.778-5.57 36.024h72.543c0-10.646 1.61-19.683 4.952-26.987 3.466-7.427 8.17-13.37 14.112-17.95s13.246-7.923 21.788-10.027c8.542-2.105 17.95-3.095 28.349-3.095 9.408 0 17.455.99 24.387 2.97 6.933 1.982 12.627 4.829 17.208 8.295 4.332 3.59 7.799 7.8 9.903 12.627 2.105 4.952 3.219 10.151 3.219 15.846" fill="#ffffff"/>
            <path d="M16147.517 11339.707s156.576 81.88 204.596 68.541c48.02-13.339 242.253-90.806 266.673-126 37.964-54.997 105.992-143.033 62.077-147.547-43.813-4.618-425.61 12.107-469.115 20.008-43.402 7.9-141.494 60.127-64.231 184.998" fill="#f68b4d"/>
            <path d="M14743.1 12732.8l1.8-1720.2s-202.8-179.4-938.4-178.2c-18.3-.1-37 0-56.1.3-421.7 5.6-526.3 560.2-533.2 1069.3-6 434.3 59.1 835.4 59.1 835.4 1015.9 319.5 1466.8-6.6 1466.8-6.6" fill="#2850a7"/>
            <path d="M16209.615 11172.999c-151.058-55.004-1017.46-28.205-1097.958 4.516-41.252 16.863-204.355 195.724-365.15 411.923l-.2.1c-152.263 204.456-302.82 442.235-346.08 606.944-88.928 338.45 38.643 618.586 38.643 618.586s219.913-20.676 304.425-85.315c84.613-64.84 509.584-1088.624 575.729-1121.044 66.244-32.62 873.227-160.593 962.056-215.195 0 0 79.393-165.412-71.465-220.515" fill="#2850a7"/>
            <path d="M14240.2 12835.9l-5.2-53.3s-.9-168.2-208.5-173.5c-207.6-5.4-354.9 98.4-337.4 226.6 27.7 97.9 54.3 164.5 63.3 246.8 3.4 30.6 4.3 63.3 2 100.5l398.6-28.9 115.5-29.9-28.3-288.3" fill="#f68b4d"/>
            <path d="M14268.5 13124.2l-28.3-288.3c-44-15.8-92.8-23.4-146.3-18.4-182.9 16.9-337.2 328.3-339.5 365.5l514.1-58.8" fill="#e47a3d"/>
            <path d="M14278.7 12981.8s-519.1-55.7-548.9 268.1c-29.8 323.8-116.8 534.7 213.4 584 330.2 49.3 406-68.3 442.3-174 36.2-105.7 27.5-655.2-106.8-678.1" fill="#f68b4d"/>
            <path d="M14506.4 13887.3s-141.1 24-301.9 112.4c-130.6 71.8-308.3 22.5-366.7-1.7 2.3 8.9 7 20.8 16.7 32.3 0 0-26.7-15.4-32.7-39.9-2.7-1.7-4-2.9-3.4-3.4 0 0-27.8 7.8-46.8 1.3 0 0 12.9.7 16.7-7.9.4-1 1.1-1.8 1.8-2.5-221.7-82.9-272.3-416.5-211.2-500.4 73.5-101 152.6-320.3 152.6-320.3s40.5 46.3 33.2 129.9c-7.4 83.5 63.6 76.9 156.7 106 93.1 29 28.1 140.5 112.4 196.7 84.3 56.3 368.4-7.7 369.2 41.2 110.3 29 102.4 245.3 103.4 256.3" fill="#233664"/>
            <path d="M13806.5 10834.4c-18.3-.1-37 0-56.1.3-421.7 5.6-526.3 560.2-533.2 1069.3 48.2-29.6 701.6-443.4 589.3-1069.6" fill="#2d499a"/>
            <path d="M13479.5 11339.7s156.6 81.9 204.6 68.6c48-13.4 242.3-90.8 266.7-126.1 38-54.9 105.9-143 62.1-147.5-43.9-4.6-425.7 12.1-469.1 20-43.5 7.9-141.6 60.2-64.3 185" fill="#f68b4d"/>
            <path d="M13461.1 12781.6s-314.5-40-485.4-202.6c-155.4-147.8-635.4-895.6-773.7-1167.8-22.1-43.4 18.8-146.1 56.6-176.7 94.6-76.7 297.8-145 819.9-108.5l465.9 23.7s52.9 203.3-42.9 255.8l-743.2 80.3s467.7 401 562 520.1c94.3 119.1 140.8 775.7 140.8 775.7" fill="#2850a7"/>
            <path d="M16209.5 11173c-151-55.1-1017.4-28.2-1097.9 4.5-41.3 16.8-204.4 195.7-365.2 411.8 8.7-2 286-71 445.3-242.6 0 0 93.5-54.4 361.2-55.5 267.7-1.2 609.5-25.6 656.6-118.2" fill="#2d499a"/>
            <path d="M13515 12805.5s-329.1-41.7-443.4-121c-114.2-79.3-95.9-105.5-95.9-105.5s34.9-65.5 205.1-13.2 397.3 166.1 397.3 166.1-.3 65.9-63.1 73.6" fill="#2d499a"/>
            <path d="M14304.8 12868.3s15-48.7 43.8-57.9c28.8-9.1 313.6-115.3 354-96.4 40.5 18.8-58.1 120.3-211.5 141.3-153.4 21-186.3 13-186.3 13" fill="#2d499a"/>
            <path d="M17345.565 11238.572c42.222-48.792 188.706 79.813 208.848 96.83 1.185 1.724 2.154 2.586 2.154 2.586l-24.342 112.879s-165.872 28.65-197.108 4.74c-31.343-24.02-36.082-164.903 10.448-217.035" fill="#f68340"/>
            <path d="M18965.074 12218.348c-1.047-19.782-3.723-40.378-7.563-62.022-16.407-94.37-79.243-206.893-162.327-317.67-3.49-5.12-6.981-10.357-11.403-15.36-159.068-208.546-387.14-407.806-517.583-465.51-17.105-7.634-38.981-13.836-64.116-18.875-101.236-20.13-258.442-21.12-394.47-16.628-113.105 2.874-212.363 10.519-253.206 13.126-13.033.814-20.48 1.803-20.48 1.803l-1.63 113.687s96.931 24.54 217.018 59.229c105.774 31.103 229.351 69.666 318.02 104.54 51.2 20.038 90.763 38.854 108.916 54.214 115.315 98.094 285.67 456.026 431.94 687.821a2268.097 2268.097 0 0 0 39.213 62.255c1.164 1.745 2.444 4.305 4.539 5.934 6.865 9.425 12.683 18.036 18.385 25.6.116 1.047 1.28 1.862 2.21 2.56 26.648 37.702 53.062 67.025 76.102 85.527l.117.93c1.745 1.397 3.374 2.793 5.12 4.073 26.414 20.247 50.036 26.531 69.701 15.128 0 0 40.262-28.044 77.498-86.342 4.887-5.353 7.912-11.403 10.822-17.454 22.225-37.586 42.007-86.225 49.92-145.338 4.072-28.043 5.352-58.298 3.257-91.228" fill="#f89d63"/>
            <path d="M20043.03 10941.649c-21.832-141.106-1240.224-168.155-1194.093-16.097 0 0-64.14 888.373-133.335 1110.022a343.287 343.287 0 0 0-6.414 23.99c-49.461 212.486 129.634 402.744 39.717 479.834l-.124.123s58.219 53.531 230.53 95.962c0 0 13.815 3.823 36.757 9.744 12.58 16.898 9.127 83.504 1.233 152.946-10.36 88.931-27.629 182.673-27.629 182.673l293.436 93.001 17.514 5.427c22.079-205.12 90.288-335.125 133.829-365.715 23.805-.246 52.544-1.233 79.803-3.33 0 0 113.97.247 210.055-26.149 26.642-7.277 51.805-16.775 72.896-28.739 0 0-15.911-25.285-34.906-63.892-15.295-31.206-32.686-71.293-45.144-113.723-2.713-9.128-5.057-18.255-7.154-27.383a380.633 380.633 0 0 1-9.374-57.971c-1.727-25.41 8.264-49.585 26.149-74.229 16.158-22.56 39.223-45.748 65.372-70.738 17.268-16.256 35.647-33.438 54.642-51.755v-.098c-13.445-114.513-46.501-301.453-52.175-504.86-1.357-51.582 9.004-102.536 30.096-149.283 8.017-18.514 18.008-36.485 29.603-53.482 91.644-135.271 250.758-401.842 188.716-546.278" fill="#f89d63"/>
            <path d="M19278.61 13818.921c2.769 16.495 257.651-250.789 239.471-245.13 9.873-21.31 19.264-44.547 27.812-70.192 78.981-237.425-62.125-440.536-150.859-404.176-56.948 23.357-87.048-75.129-87.048-75.129l-511.33 540.226s268.488 407.548 481.953 254.401" fill="#293666"/>
            <path d="M18989.677 12980.696s17.39-93.577 27.564-182.539c167.277 23.542 238.968 186.68 265.822 275.641l-293.386-93.102" fill="#f68340"/>
            <path d="M18943.074 12890.195s397.854 37.97 370.444 285.486c-27.528 247.398 5.459 418.974-249.77 405.21-255.348-13.764-294.149-113.672-305.065-198.511-10.916-84.84 80.093-495.626 184.391-492.185" fill="#f89d63"/>
            <path d="M18755.041 13521.29c53.057 81.313 101.344 70.106 129.84 50.672 203.641 143.67 363.407-17.17 363.407-17.17 46.498-174.549 185.876-261.824 185.876-261.824s-67.364-52.937-239.052-28.615c-52.58 7.393-102.179 38.511-145.697 78.095 80.121-105.636 181.227-176.935 181.227-176.935-209.722 69.868-320.724 338.131-332.05 366.627-21.819-24.561-64.383-77.141-73.683-125.19-12.757-65.218-7.154-195.891-45.426-195.772 0 0-103.967 188.142-24.442 310.112" fill="#293666"/>
            <path d="M17815.226 11690.438l-605.321 80.567 530.372-860.338 575.544-76.645-500.595 856.416" fill="#cbdcea"/>
            <path d="M17807.708 11690.37l-605.298 80.646 530.268-860.356 575.645-76.637-500.615 856.347" fill="#ecf6fc"/>
            <path d="M17947 11222.865c50.73-6.522 131.24-13.701 179.932-2.129 0 0-147.546 21.798-109.952 64.318 6.907 7.757 79.492-8.47 161.588-19.397 33.63-4.473 110.631-61.657 106.102-63.23 60.468-.057 115.954 4.268 133.958 5.718 4.756.305 6.794.973 6.794.973l32.046-159.9s-11.437-1.291-31.253-2.4c-50.39-5.481-154.228-17.892-254.102-42.102-139.506-34.854-228.397 43.426-266.557 95.503-24.233 33.009-41.105 74.815-35.896 102.796 5.888 30.653 46.427 23.814 77.34 19.85" fill="#f89d63"/>
            <path d="M19250.176 13807.958s87.7 158.804 274.122 31.494c220.218-150.567 34.765-566.05 34.765-566.05l-308.887 534.556" fill="#293666"/>
            <path d="M20043.03 10941.649c-11.101-71.54-330.069-113.785-635.715-118.188-296.766-4.317-581.074 27.148-558.378 102.091 0 0-6.66 93.668-18.255 227.768-4.317 50.423-9.374 106.507-14.801 165.552-7.648 79.273-16.035 163.85-25.163 246.626-22.078 196.561-48.227 383.785-75.116 470.076a343.287 343.287 0 0 0-6.414 23.99c-49.461 212.486 129.634 402.744 39.717 479.834 5.304-2.96 196.61-109.16 462.416-82.517 269.63 26.889 512.988 227.2 512.988 227.2s48.474-12.582 72.896-28.74c29.11-18.995-67.592-135.185-80.05-177.615-2.713-9.128-5.057-18.255-7.154-27.383a380.633 380.633 0 0 1-9.374-57.971c-1.727-25.41 8.264-49.585 26.149-74.229 16.158-22.56 39.223-45.748 65.372-70.738 17.268-16.256 35.523-33.34 54.518-51.668l.124-.087v-.098c-12.705-107.951-42.8-280.423-50.818-470.25-.617-11.495-.863-23.003-1.357-34.61-1.357-51.582 9.004-102.536 30.096-149.283 8.017-18.514 18.008-36.485 29.603-53.482 91.644-135.271 250.758-401.842 188.716-546.278" fill="#ef3044"/>
            <path d="M18702.271 11322.243c32.114-79.718 75.201-169.058 126.837-237.004-50.712-6.746-101.77-12.765-151.095-17.974-11.436-1.26-22.757-2.426-33.962-3.605l-.808.197c-69.194-5.857-132.844-11.425-185.865-14.66 0 0-11.321-1.247-31.19-2.425-65.96-3.42-107.545-5.29-107.545-5.29l-16.519 122.134s46.322 17.247 116.44 44.486c43.55 16.715 95.994 36.942 151.326 59.502 4.274 1.71 8.664 3.42 13.053 5.221 38.814 15.63 79.129 32.264 119.328 49.418" fill="#f89d63"/>
            <path d="M18965.05 12218.379c-1.047-19.78-3.723-40.374-7.563-62.015-16.405-94.36-79.234-206.87-162.308-317.751-3.49-5.12-6.981-10.356-11.402-15.359a4595.4 4595.4 0 0 0-21.874-28.04h-.116c-157.306-198.086-371.04-382.338-495.651-437.441-17.104-7.633-38.861-13.834-64.11-18.872-41.885 31.368-71.09 73.626-91.334 117.2-26.993 57.697-38.396 117.839-43.399 158.55 51.31 20.035 90.753 38.849 108.904 54.207 115.303 98.083 285.756 455.975 432.008 687.861 13.147 21.641 26.295 42.351 39.093 62.13 1.28 1.863 2.56 4.422 4.654 6.051 6.748 9.308 12.682 18.034 18.383 25.597.117 1.047 1.164 1.862 2.211 2.56 26.644 37.697 53.056 67.017 76.093 85.517l.116.93c1.746 1.397 3.374 2.793 5.12 4.073 72.37-75.395 149.859-207.685 211.175-325.198" fill="#ef3044"/>
            <path d="M18761.626 11795.193c-157.344-198.091-370.974-382.392-495.63-437.492-17.034-7.642-38.904-13.835-64.111-18.876-41.897 31.376-71.018 73.619-91.391 117.196 162.179-36.13 463.976 229.134 517.153 280.124 54.904 52.717 130.526 58.702 133.979 59.048" fill="#ba3257"/>
            <path d="M19846.717 12195.625v-.122c-12.663-107.927-42.86-280.41-50.774-470.233-65.628-224.158-209.303-664.11-388.654-901.845-296.727-4.31-581.034 27.153-558.387 102.107 0 0-6.697 93.658-18.264 227.763 40.302 57.519 106.783 109.73 205.651 149.276 317.67 127.092 635.826 598.056 810.306 893.176l.122-.122" fill="#ba3257"/>
            <path d="M19139.368 11302.586c-121.32-23.174-248.45-30.45-323.518 16.273-7.628 79.281-15.982 163.854-25.184 246.634 139.48 99.949 741.597 500.883 837.005 678.54 107.88 200.745-272.665-900.184-488.303-941.447" fill="#ba3257"/>
            <path d="M19891.219 12333.915c-.856-14.913-3.912-30.437-7.212-46.94-7.946-46.695-24.815-102.644-46.94-163.397-36.06-102.106-89.112-218.758-151.576-336.059-17.358-31.452-34.838-63.797-53.174-96.068-132.385-233.61-291.051-446.881-409.256-510.788-5.134-3.055-9.168-5.402-14.058-7.542-49.018-22.565-119.183-42.258-199.127-58.784-102.925-20.317-222.108-35.327-331.879-47.1-71.143 62.196-91.068 146.064-95.102 205.558 130.551 52.477 278.216 116.836 382.12 172.834 61.485 33.078 108.67 63.356 126.883 87.18 28.237 36.574 62.342 95.726 101.214 169.326 20.17 38.566 41.806 80.714 63.687 125.564 37.894 73.71 76.521 153.874 116.371 233.868 71.999 146.05 147.665 292.518 215.996 404.366 44.129 70.043 85.446 127.495 121.75 160.989 28.971 27.137 54.886 39.483 77.5 32.76 3.545-1.345 6.234-2.69 8.801-3.912 0 0 127.74-54.518 94.002-321.855" fill="#ef3044"/>
            <path d="M20552.181 7427.798H10114.195c-270.848 0-481.955 227.902-528.557 509.492-17.614 106.001-11.877 219.707 22.834 331.609l650.32 2098.87c150.8 486.519 546.498 810.575 989.795 810.575h7830.267c326.314 0 613.161-252.149 703.188-618.18l770.139-3132.366" fill="#ffffff"/>
            <path d="M21537.52 7427.828h-9016.88c-356.994 0-670.701 203.805-839.492 509.499-75.509 136.8-122.104 294.01-130.402 462.399l-76.4 1553.622c-32.805 666.01 469.895 1225.05 1101.705 1225.05h8563.888c360.613 0 677.798-252.145 777.192-618.186l511.968-1883.008c170.224-625.877-274.92-1249.376-891.58-1249.376" fill="#8b9ccc"/>
            <path d="M11730.9 13598c-.1-13-8.7-19.5-25.6-19.3l-71.9.7c-9.1.1-15.6 2.2-19.3 6.3-3.8 4-5.6 10.6-5.5 19.7l1.9 187.5c.2 18.1 7.2 27 21 26.9 13.9-.2 20.7-9.5 20.5-28l-1.8-173.7 53.1-.5c18.5-.2 27.8-6.8 27.6-19.6" fill="#ffffff"/>
            <path d="M11789.4 13602.6c-.2-18.3-7.2-27.3-21-27.2-13.8.2-20.6 9.3-20.4 27.3l1.9 188.8c.2 18 7.2 26.9 21 26.8 13.9-.1 20.7-9.2 20.5-27.3l-2-188.4" fill="#ffffff"/>
            <path d="M12004.7 13796.9c-.1-4.8-.9-9.2-2.5-13.3l-74.1-191.9c-4.7-12.1-12.1-18.2-22.1-18.1-10 .2-17 5.8-21 16.9l-71.2 195.5c-1.9 4.6-2.8 8.9-2.7 13 0 6.1 1.9 11.1 5.7 14.9 3.7 3.9 8.5 5.8 14.4 5.7 9.5-.1 16.5-6.6 20.9-19.5l54.9-158.6 1 2 55.8 154.8c4.5 12.4 11.8 18.5 21.8 18.4 12.8-.1 19.2-6.7 19.1-19.8" fill="#ffffff"/>
            <path d="M12147.5 13593c-.1-12.6-9-18.8-26.6-18.7l-74.8.8c-9.1.1-15.7 2-19.5 5.8-3.9 3.7-5.8 10.2-5.7 19.3l1.9 186.1c.2 18.3 8.6 27.3 25.1 27.1l75.8-.7c17-.2 25.4-6.8 25.2-19.9-.1-13-8.8-19.5-26.1-19.3l-58.6.6-.6-57.1 53.7-.6c17.3-.2 25.9-6.5 25.7-19-.1-12.6-8.8-18.7-26.1-18.5l-53.7.5-.7-65.6 59.6-.6c17.1-.2 25.5-6.9 25.4-20.2" fill="#ffffff"/>
            <path d="M11348.7 13699.2c0 30.6 24.7 55.3 55.3 55.3 30.5 0 55.3-24.7 55.3-55.3 0-30.5-24.8-55.3-55.3-55.3-30.6 0-55.3 24.8-55.3 55.3" fill="#ffffff"/>
        </g>
        <path d="M2808.979 1082.905H1457.602v41.134h1351.377v-41.134" fill="#d28f18"/>
        <path d="M2766.962 1712.062c1.104 12.758-45.053 57.212-81.768 90.412a2067.805 2067.805 0 0 1-26.662 23.666c-8.848 7.72-12.057 19.973-8.406 31.133 1.8 5.467 2.615 11.106 1.24 15.999-1.851 6.548-4.653 12.641-11.463 12.641l-35.696-.054-44.272-.04c-7.455 0-11.905-8.466-7.54-14.52 5.264-7.347 13.84-12.572 23.86-14.746 3.498-.76 7.285-2.72 11.14-5.466 13.415-9.573 27.612-28.681 33.454-39.507 5.366-9.92 10.206-20.467 14.706-31.373 27.511-66.466 42.897-146.184 88.103-175.784 11.361-7.428 41.436 86.532 43.304 107.639" fill="#f6894a"/>
        <path d="M2685.262 1802.458a1985.504 1985.504 0 0 1-26.671 23.668c-8.847 7.72-12.043 19.973-8.402 31.132 1.796 5.468 2.62 11.107 1.252 16.002-1.878 6.546-4.662 12.64-11.466 12.64l-35.716-.054-44.265-.04c-7.447 0-11.911-8.467-7.545-14.52 5.271-7.347 13.854-12.573 23.87-14.748 3.51-.759 7.282-2.72 11.137-5.466 13.41-9.573 27.61-28.68 33.459-39.508 5.354-9.919 10.197-20.465 14.71-31.373 12.307 2.12 34.283 7.774 49.637 22.267" fill="#344394"/>
        <path d="M2604.251 1885.849l-44.272-.04c-7.446 0-11.903-8.468-7.541-14.522 5.272-7.346 13.852-12.572 23.87-14.746 3.498-.76 7.285-2.72 11.135-5.466 6.599 7.386 16.041 20.36 16.808 34.774" fill="#253771"/>
        <path d="M2867.479 1278.1s4.581-13.68-.335-23.45c0 0-.247 13.459-5.533 19.448-5.286 5.99 5.868 4.003 5.868 4.003" fill="#293666"/>
        <path d="M2865.36 1268.54s12.527-1.421 18.436 8.212c0 0-8.81-5.968-17.745.359l-.69-8.572" fill="#293666"/>
        <path d="M3000.504 1768.019s-5.007 118.041-160.904 118.041c-113.504 0-193.708-281.644-193.708-281.644s27.87-17.027 33.871-15.494c54.304 13.762 320.741 179.097 320.741 179.097" fill="#f89d63"/>
        <path d="M2760.865 1453.21l60.848 28.038 13.672-47.32s-8.68-16.373-12.611-43.201a180.854 180.854 0 0 1-1.41-38.934l-55.559 28.455s1.305 5.133 2.21 12.707c.938 8.2 1.356 19.253-.958 29.747-2.017 9-4.261 18.679-6.192 30.507" fill="#f89d63"/>
        <path d="M2766.945 1422.738c31.586-.853 55.726-31.972 55.726-31.972l-54.756 2.225c.935 8.202 1.35 19.255-.97 29.747" fill="#f6894a"/>
        <path d="M2751.6 1405.134s63.022 16.64 84.777-33.48c23.458-54.082-2.28-93.49-23.685-96.146-42.687-5.304-67.478 10.971-74.97 28.174-7.51 17.203-20.896 92.585 13.878 101.452" fill="#f89d63"/>
        <path d="M2917.018 1886.056s-99.272-.051-109.352 0c-2.442 0-7.032-1.759-12.613-4.44-17.552-8.386-44.798-25.854-44.798-25.854-10.851-95.417 73.036-139.618 73.036-139.618s145.705 20.16 161.99 76.016c.9 3 1.469 5.987 1.78 8.893 5.619 50.95-70.043 85.003-70.043 85.003" fill="#344394"/>
        <path d="M2917.018 1886.056s-99.272-.051-109.352 0c-2.442 0-7.032-1.759-12.613-4.44 2.277.12 4.737.282 7.344.482 113.887 8.838 98.85-86.444 98.85-86.444l85.815 5.4c5.618 50.948-70.044 85.002-70.044 85.002" fill="#253771"/>
        <path d="M2742.436 1295.909c-16.702 1.323-30.922-12.53-11.92-38.752 17.331-23.914 84.605-28.508 115.24-6.073 84.658 61.981 22.975 123.338-14.652 142.485-4.765 2.425-10.59.972-13.736-3.375-6.364-8.852-15.856-23.56-13.303-29.559 3.757-8.852 4.242-30.568-7.641-25.92-11.883 4.654-37.412-40.119-53.988-38.806" fill="#171f3e"/>
        <path d="M2999.163 1809.917c-74.776 64.72-156.55-72.84-190.226-115.666-4.53-5.774-8.186-9.828-10.841-11.441-22.425-13.613-54.69-65.054-56.472-86.84-1.615-19.707-.89-40.014 1.058-59.346 5.83-57.428 22.649-106.374 22.649-106.374 59.144 1.665 65.29-7.533 65.29-7.533 137.076 20.76 195.311 364.027 168.542 387.2" fill="#7d366e"/>
        <path d="M2808.892 1694.267c-4.548-5.774-8.2-9.826-10.868-11.44-22.403-13.613-54.673-65.052-56.463-86.838-1.616-19.706-.896-40.013 1.053-59.347 8.498-17.785 22.754-32.304 44.665-40.465h19.559s54.953 52.332 2.054 198.09" fill="#f79310"/>
        <path d="M2689.205 1712.042c.132 1.559-.429 3.56-1.584 5.96-8.365 17.399-47.93 55.28-80.185 84.454-9.965 9-19.221 17.187-26.662 23.666-8.844 7.722-12.045 19.974-8.398 31.136 1.781 5.466 2.606 11.105 1.237 15.999-1.864 6.546-4.653 12.641-11.467 12.641l-79.97-.094c-7.458 0-11.913-8.467-7.557-14.52 5.28-7.348 13.86-12.573 23.874-14.747 15.74-3.414 37.09-31.04 44.597-44.973 5.362-9.921 10.213-20.467 14.717-31.375 10.147-24.573 18.677-50.934 27.669-75.935 6.286-17.586 12.836-34.466 20.343-49.546 10.691-21.494 23.346-39.334 40.076-50.31l.33-.186c4.636-2.186 12.11 11.241 19.568 29.468 3.993 9.813 8.002 21.04 11.55 32.001 6.318 19.6 11.136 38.294 11.862 46.36" fill="#f89d63"/>
        <path d="M2607.348 1802.48c-9.966 9-19.227 17.186-26.665 23.666-8.862 7.72-12.061 19.972-8.398 31.133 1.791 5.466 2.607 11.106 1.231 15.999-1.855 6.547-4.654 12.64-11.453 12.64l-79.98-.093c-7.454 0-11.9-8.466-7.55-14.52 5.279-7.346 13.853-12.572 23.866-14.746 15.756-3.414 37.079-31.04 44.597-44.973 5.359-9.919 10.206-20.465 14.716-31.373 12.301 2.121 34.28 7.774 49.636 22.267" fill="#344394"/>
        <path d="M2734.325 1613.07c-.839.92-23.87 28.147-57.035 52.626a304.658 304.658 0 0 1-8.589 6.106c-24.609 16.854-53.797 31.106-83.288 32.467 6.291-17.587 12.85-34.466 20.348-49.547 16.054-6.225 33.584-12.36 50.393-17.892a788.96 788.96 0 0 1 9.578-3.134c36.871-11.907 67.99-20.467 68.593-20.626" fill="#f6894a"/>
        <path d="M2756.439 1443.046s-66.254 149.998-94.062 161.424c-27.809 11.44-87.612 69.798-87.612 69.798l12.85 20.6s83.772-32.934 103.833-44.48c20.044-11.56 121.214-110.477 115.109-137.184-6.105-26.705 12.365-79.786-50.118-70.158" fill="#f89d63"/>
        <path d="M2780.97 1430.43s-26.365 6.749-42.917 33.121c-16.533 26.374-32.059 53.776-32.059 53.776s32.59 46.294 104.454 26c71.881-20.308 20.158-115.522-29.478-112.896" fill="#7d366e"/>
        <path d="M2574.735 1674.28s-25.663 31.999-1.05 63.198l18.015-50.624-16.965-12.574" fill="#f89d63"/>
        <path d="M759.237 2136.982s-47.119-54.959-2.905-89.878c0 0 32.294-19.56 58.628-17.973 0 0-37.314 62.572-25.242 68.798 12.071 6.227 36.55-72.718 36.55-72.718s73.494-7.133 97.136 4.24c0 0-62.827 51.412-49.595 54.479 13.231 3.053 81.092-47.412 81.092-47.412s68.401 11.64 64.755 53.372c-3.648 41.732-27.215 54.612-37.575 53.505-10.36-1.107-70.954-24.253-72.274-15.76-1.322 8.493 35.155 36.226 60.697 37.533 0 0-48.224 53.172-80.274 37.825-32.05-15.346-34.786-39.679-54.764-48.798-19.98-9.133-37.035-9.107-28.786.2 8.249 9.306 44.407 18.346 55.832 38.559s21.675 33.839-11.484 28.852c-33.16-4.986-87.06-29.252-89.426-57.038l-2.365-27.786" fill="#21733b"/>
        <path d="M986.047 2091.01s-185.783-7.16-226.81 45.972c0 0-9.074 27.186-36.995 51.932l-4.352 11.853s32.193-33.946 43.712-36c0 0-18.014-65.824 224.445-73.757" fill="#226450"/>
        <path d="M722.242 2188.914s-39.876 29.48-42.647 82.171l7.238.653s12.736-54.478 35.756-75.784c23.019-21.32-.347-7.04-.347-7.04" fill="#226450"/>
        <path d="M594.493 2067.85s74.954-41.972 39.976-98.93c0 0-27.983-34.986-57.965-43.973 0 0 15.99 84.945 0 86.945s-10.993-95.945-10.993-95.945-78.951-37.972-109.932-34.972c0 0 48.97 82.944 32.98 80.944-15.99-2-70.956-85.944-70.956-85.944s-80.951-14.986-93.942 32.986c-12.993 47.959 7.995 71.945 19.988 74.945 11.991 3 88.944 2 86.946 12-1.999 9.986-53.967 25.972-82.949 16.986 0 0 31.98 78.944 73.954 74.958 41.974-4 54.967-29.986 80.95-31.986s44.972 5 31.98 11.986c-12.991 7-56.965 2.293-77.952 20.133-20.988 17.853-37.976 28.84 1 36.84 38.975 7.986 108.933 2.999 122.923-26.987l13.992-29.986" fill="#21733b"/>
        <path d="M360.638 1923.947s209.87 67.958 233.855 143.903c0 0-1 33.986 19.988 72.958v14.987s-21.986-50.96-33.98-57.959c0 0 46.971-65.958-219.863-173.889" fill="#226450"/>
        <path d="M614.48 2140.808s32.366 49.146 13.915 108.984l-8.327-2.24s8.084-65.905-8.85-99.037c-16.933-33.146 3.263-7.707 3.263-7.707" fill="#226450"/>
        <path d="M713.738 2009.972s-98.803-55.332-52.693-130.424c0 0 36.886-46.105 76.407-57.958 0 0-21.078 111.97 0 114.61 21.078 2.627 14.49-126.477 14.49-126.477s104.073-50.052 144.912-46.105c0 0-64.55 109.344-43.474 106.704 21.078-2.627 93.534-113.29 93.534-113.29s106.706-19.76 123.833 43.478c17.126 63.225-10.539 94.851-26.348 98.798-15.807 3.946-117.246 2.64-114.612 15.813 2.636 13.173 71.139 34.252 109.343 22.386 0 0-42.156 104.077-97.486 98.81-55.329-5.266-72.455-39.518-106.708-42.158-34.25-2.64-59.28 6.586-42.154 15.813 17.124 9.213 75.09 3.013 102.754 26.532 27.665 23.52 50.06 38.013-1.317 48.56-51.377 10.532-143.594 3.946-162.037-35.573l-18.444-39.52" fill="#21733b"/>
        <path d="M1022.004 1820.27s-276.648 89.57-308.266 189.702c0 0 1.319 44.785-26.346 96.157v19.773s28.982-67.198 44.79-76.411c0 0-61.916-86.945 289.822-229.221" fill="#226450"/>
        <path d="M687.392 2106.13s-42.664 64.798-18.342 143.662l10.976-2.96s-10.653-86.864 11.667-130.543c22.321-43.692-4.3-10.16-4.3-10.16" fill="#226450"/>
        <path d="M903.945 2227.273c0 106.877-86.65 193.528-193.536 193.528-22.317 0-43.75-3.773-63.692-10.733-75.6-26.333-129.845-98.237-129.845-182.795h387.073" fill="#131923"/>
        <path d="M776.553 2227.273c0 72.505-17.37 146.356-76.395 179.502-9.811 5.506-42.666-.453-53.44 3.293-75.6-26.333-129.846-98.237-129.846-182.795h259.68" fill="#171f3e"/>
        <path d="M906.62 2430.654H514.196c0-6.586 2.676-12.56 6.995-16.88a23.82 23.82 0 0 1 16.889-7h344.667c13.183 0 23.873 10.694 23.873 23.88" fill="#253e7d"/>
        <path d="M722.755 2430.654H514.196c0-6.586 2.676-12.56 6.995-16.88a23.82 23.82 0 0 1 16.889-7h160.8c13.182 0 23.875 10.694 23.875 23.88" fill="#171f3e"/>
        <path d="M908.35 2233.206H510.508v-5.946h397.844v5.946" fill="#253e7d"/>
        <path d="M3427.727 2097.837l-16.928 64.08v.013l-70.426 266.683h-7.403l40.691-221.257c.042-.212.106-.424.148-.666l20.124-109.427 33.794.574" fill="#171f3e"/>
        <path d="M3427.727 2097.837l-16.928 64.08v.013c-.989.481-31.775 16.4-36.99 44.76l20.124-109.427 33.794.574" fill="#171f3e"/>
        <path d="M3760.247 2428.614h-7.405l-57.373-217.239v-.041l-13.057-49.398-.023-.014-16.91-64.081 33.797-.572 11.511 62.56 8.628 46.865c.023.24.092.455.115.667l40.717 221.253" fill="#171f3e"/>
        <path d="M3710.858 2159.824c-6.238 9.08-14.843 26.133-15.344 51.506l-13.022-49.4-.023-.013-16.915-64.082 33.784-.572 11.52 62.561" fill="#171f3e"/>
        <path d="M3813.923 2103.582h-554.175c-7.491 0-13.643-6.134-13.643-13.64v-39.667c0-7.493 6.152-13.638 13.643-13.638h554.175c7.49 0 13.643 6.145 13.643 13.638v39.666c0 7.507-6.152 13.641-13.643 13.641" fill="#253e7d"/>
        <path d="M3765.626 2037.018h-171.255v-28.813h171.255v28.813" fill="#f3dcc7"/>
        <path d="M3769.291 2033.946H3511.52l-.763-25.745h258.395c.81 0 1.527-.668 1.504-1.494a1.623 1.623 0 0 0-1.62-1.573H3503.1c-1.874 0-3.61 1-4.534 2.625-2.915 5.094-7.611 16.908 1.711 29.254h268.62c.972 0 1.736-.772 1.759-1.72 0-.746-.625-1.347-1.365-1.347" fill="#2d49a0"/>
        <path d="M3671.575 2033.942l-166.01.173a5.252 5.252 0 0 1-5.248-5.253v-17.495a3.176 3.176 0 0 1 3.176-3.171h168.082v25.746" fill="#feebd7"/>
        <path d="M3621.997 2022.035l49.578-.466v1.694l-49.578-1.228" fill="#f3dcc7"/>
        <path d="M3653.713 2028.036l17.862-.881v1.147l-17.862-.266" fill="#f3dcc7"/>
        <path d="M3719.986 2005.149h-151.31v-28.8h151.31v28.8" fill="#f3dcc7"/>
        <path d="M3723.339 2002.064h-227.792l-.662-25.733h228.317c.731 0 1.348-.681 1.325-1.506-.023-.869-.64-1.575-1.44-1.575h-234.966c-1.645 0-3.176 1.001-3.999 2.628-2.559 5.093-6.74 16.907 1.508 29.255h237.366c.846 0 1.531-.775 1.531-1.72 0-.748-.548-1.349-1.188-1.349" fill="#b72e33"/>
        <path d="M3636.856 2002.077l-146.68.161c-2.565.013-4.64-2.334-4.64-5.241v-17.493c0-1.747 1.25-3.159 2.789-3.159h148.531v25.732" fill="#feebd7"/>
        <path d="M3593.058 1990.172l43.798-.467v1.694l-43.798-1.227" fill="#f3dcc7"/>
        <path d="M3621.06 1996.171l15.796-.88v1.162l-15.797-.282" fill="#f3dcc7"/>
        <path d="M3638.486 1973.277h-137.437a6.363 6.363 0 0 1-6.361-6.36v-11.654c0-4.067 3.303-7.36 7.366-7.36h136.432v25.374" fill="#2d49a0"/>
        <path d="M3704.501 1971.182h-69.363a6.126 6.126 0 0 1-6.136-6.148v-9.827c0-2.893 2.34-5.241 5.227-5.241h70.272v21.216" fill="#feebd7"/>
        <path d="M3707.924 1947.894h-193.472v2.08h193.472v-2.08" fill="#2d49a0"/>
        <path d="M3707.924 1971.186h-188.012v2.08h188.012v-2.08" fill="#2d49a0"/>
        <path d="M3418.273 1950.929s-30.303 12.293-51.82-18.6c0 0 34.96-5.932 51.82 18.6" fill="#5dc0c0"/>
        <path d="M3420.388 1938.25s2.15-10.825 14.837-11.198c0 0-4.784 10.959-14.837 11.199" fill="#5dc0c0"/>
        <path d="M3414.035 1874.874s-14.682 1.575-20.191-14.52c0 0 15.918 1.775 20.191 14.52" fill="#5dc0c0"/>
        <path d="M3379.168 1662.066c29.638-6.36 30.14-30.6 30.14-30.6-34.909 11.027-30.14 30.6-30.14 30.6" fill="#21733b"/>
        <path d="M3377.197 1656.517s-18.502 7.509-31.638-11.346c0 0 21.34-3.628 31.638 11.346" fill="#21733b"/>
        <path d="M3417.802 2022.02l3.823 4.4c.588.68 1.701.255 1.701-.625-.231-124.803-16.067-235.67-29.382-301.098-14.533-71.388-29.256-113.602-29.403-114.015.147.413 13.442 43.295 27.912 114.494 13.336 65.522 28.584 151.164 24.72 295.152 0 .626.23 1.226.63 1.692" fill="#21733b"/>
        <path d="M3364.81 1593.67c4.717 3.798 22.819 19.986 5.257 32.481 0 0-13.467 4.252-17.915-6.108-3.408-7.92-4.322-16.747-4.572-20.48a1.773 1.773 0 0 1 1.642-1.88 14.43 14.43 0 0 0 3.803-.867c1.663-.653 2.515-3.16 4.76-3.72 1.413-.347 2.847-.64 4.489-.493.935.08 1.787.48 2.535 1.066" fill="#ee3044"/>
        <path d="M3374.752 1621.652s-5.362 4.294-3.375 11.16l.062 2.534s-1.428-6.348-8.012-8.307c0 0 5.942.653 11.325-5.387" fill="#21733b"/>
        <path d="M3379.168 1662.066c29.638-6.36 30.14-30.6 30.14-30.6s-23.468 12.893-30.14 30.6" fill="#21733b"/>
        <path d="M3407.72 1645.432s18.652 7.134 31.417-11.986c0 0-21.415-3.186-31.416 11.986" fill="#21733b"/>
        <path d="M3374.395 2011.687l-3.734 4.494c-.566.68-1.678.279-1.7-.6-2.286-124.786 11.35-235.944 23.328-301.61 13.09-71.68 26.978-114.17 27.125-114.598-.147.428-12.566 43.573-25.614 115.04-12.02 65.771-25.551 151.704-18.796 295.581a2.51 2.51 0 0 1-.609 1.693" fill="#21733b"/>
        <path d="M3418.832 1582.37c-4.638 3.892-22.43 20.439-4.616 32.573 0 0 13.555 3.999 17.792-6.453 3.246-7.988 3.984-16.827 4.153-20.573.042-.974-.696-1.775-1.687-1.84-1.012-.08-2.403-.28-3.794-.787-1.687-.613-2.593-3.12-4.849-3.628-1.412-.32-2.846-.586-4.49-.413-.928.108-1.792.52-2.509 1.122" fill="#ee3044"/>
        <path d="M3409.302 1610.545s5.435 4.186 3.588 11.078v2.548s1.301-6.374 7.828-8.468c0 0-5.897.774-11.416-5.158" fill="#21733b"/>
        <path d="M3399.854 1623.574s-19.69 3.293-28.409-17.988c0 0 21.63 1.134 28.409 17.988" fill="#21733b"/>
        <path d="M3359.685 1989.149l2.776 5.133c.397.775 1.587.614 1.754-.252 27.033-121.84 35.738-233.506 37.011-300.24 1.399-72.853-3.778-117.252-3.82-117.693.042.44 3.653 45.186 2.255 117.827-1.274 66.852-5.073 153.76-40.226 293.438-.147.6-.042 1.24.25 1.787" fill="#21733b"/>
        <path d="M3401.337 1559.558c3.776 4.734 17.914 24.48-1.951 32.84 0 0-14.076 1.226-16.153-9.866-1.594-8.467-.566-17.281 0-20.973a1.78 1.78 0 0 1 2.014-1.481c1.028.132 2.434.2 3.902-.013 1.762-.266 3.147-2.546 5.454-2.588 1.468-.04 2.916-.013 4.49.495.901.279 1.656.854 2.244 1.586" fill="#ee3044"/>
        <path d="M3405.07 1589.03s-6.183 3.026-5.724 10.146l-.501 2.494s-.021-6.507-5.996-9.854c0 0 5.64 1.933 12.221-2.787" fill="#21733b"/>
        <path d="M3383.554 1601.669s0-15.587-13.43-20.48c0 0-2.948 12.999 13.43 20.48" fill="#21733b"/>
        <path d="M3415.107 1576.608s-.378-11.892 10.622-15.32c0 0 2.65 11.08-10.622 15.32" fill="#ee3044"/>
        <path d="M3379.103 1648.148c-.395.348-5.738-11.573 5.135-21.147 0 0 4.532 12.748-5.135 21.147" fill="#ee3044"/>
        <path d="M3371.365 1647.249c.29.08.083-5.933-5.564-6.787 0 0-.951 5.002 5.564 6.787" fill="#21733b"/>
        <path d="M3427.604 1627.04s4.76-9.867 20.009-8.147c0 0-2.284 10.573-20.009 8.147" fill="#21733b"/>
        <path d="M3343.367 2036.634h97.691c6.567 0 11.608-5.814 10.655-12.32l-45.478-313.461c-.402-2.921-2.923-5.094-5.867-5.094h-14.531c-3.135 0-5.825 2.306-6.27 5.426l-46.58 313.435c-.931 6.333 3.983 12.014 10.38 12.014" fill="#ef9811"/>
        <path d="M3419.414 2027.155l-24.128-321.316a5.943 5.943 0 0 1 5.097 5.014l45.463 313.46c.952 6.508-4.08 12.32-10.657 12.32h-19.518c2.516-2.253 4.039-5.693 3.743-9.478" fill="#d28f18"/>
        <path d="M2553.408 1361.512s-6.298 41.493 6.833 63.04h-83.53s6.644-35.734 3.314-58.32c-3.314-22.587 73.383-4.72 73.383-4.72" fill="#f89d63"/>
        <path d="M2480.08 1366.212s-25.572 10.707-31.352-64.622c-4.544-59.37 1.045-69.878 62.497-71.63 58.19-1.657 69.511 15.298 69.559 35.903.158 108.749-77.555 95.029-100.705 100.35" fill="#f89d63"/>
        <path d="M2532.415 1196.69c23.09 6.47 56.025 24.34 56.025 54.919 0 28.657-2.795 56.503-10.147 63.645-7.353 7.142-5.193 39.454-38.255 39.535-30.633.067-61.758-19.28-66.49-37.137-4.732-17.862-27.06-5.329-31.665-23.939-9.115-36.724-7.527-55.693 16.722-75.657 21.12-17.39 47.56-28.722 73.81-21.366" fill="#171f3e"/>
        <path d="M2580.66 1305.506s7.19-5.963 9.767 1.393c2.577 7.356-14.238 31.78-20.537 23.641-6.316-8.143 10.77-25.034 10.77-25.034" fill="#f89d63"/>
        <path d="M2737.096 1549.128v204.884l-496.825-11.986c-12.779-.653-61.19-53.229-59.897-65.976l26.33-41.6c11.821-17.306 39.108-45.668 46.245-51.614 27.573-23.015 97.293-82.695 103.304-102.802 12.41-41.481 28.463-56.388 44.617-62.15 23.878-8.506 51.283-14.146 79.107-17.105 5.86-.613 11.738-1.12 17.598-1.508 18.824-1.226 37.547-1.226 55.178-.065 39.932 2.612 74.473 11.227 92.659 25.32 16.926 13.12 59.796 75.935 91.684 124.602" fill="#284191"/>
        <path d="M2506.518 1180.162c8.776.954 17.634.59 26.344-.769 17.03-2.65 44.777-3.535 57.957 15.015 50.828 71.573-11.729 112.336-2.382 137.724 9.363 25.388 70.419 59.803 56.945 92.403-33.423 80.907-90.075 17.974-145.128-.374-10.619-3.533-5.431-59.32 51.367-87.708 17.111-8.537-86.062-26.784-102.896-34.858-24.517-11.742-25.708-32.19-21.907-51.678 6.198-31.807 33.864-74.75 79.7-69.755" fill="#171f3e"/>
        <path d="M2477.737 1307.681s1.004-9.562-6.706-8.852c-19.252 1.776-18.78 29.46-8.349 31.619 10.448 2.16 15.055-22.767 15.055-22.767" fill="#f89d63"/>
        <path d="M1844.54 1279.22s6.814 44.83-7.373 68.102h90.225s-7.187-38.593-3.587-62.996c3.587-24.402-79.264-5.107-79.264-5.107" fill="#f89d63"/>
        <path d="M1884.26 1300.353s67.158-4.466 73.398-85.824c4.92-64.13-1.134-75.478-67.505-77.37-62.852-1.792-75.092 16.523-75.118 38.777-.187 117.47 44.225 118.665 69.225 124.417" fill="#f89d63"/>
        <path d="M1867.26 1101.221c-24.946 6.986-60.519 26.293-60.519 59.316 0 30.954 3.014 61.03 10.96 68.743 7.947 7.714 27.84 57.806 63.559 57.883 33.079.073 49.932-15.889 55.038-35.184 5.107-19.293 23.76-25.864 28.746-45.966 9.84-39.664 8.12-60.153-18.066-81.713-22.813-18.786-51.372-31.025-79.718-23.079" fill="#c31e25"/>
        <path d="M1815.035 1218.695s-7.787-6.44-10.56 1.506c-2.787 7.943 15.373 34.332 22.186 25.536 6.813-8.795-11.626-27.042-11.626-27.042" fill="#f89d63"/>
        <path d="M1745.238 1347.325c43.916-34.02 176.201-38.491 264.116-7.173 17.467 6.213 34.796 22.332 48.193 67.13 6.484 21.72 81.788 86.171 111.576 111.025 7.712 6.425 37.183 37.066 49.959 55.758l28.436 44.932c1.393 13.759-50.884 70.544-64.695 71.25l-590.87 14.24-22.351-90.13c-3.56-14.346-.262-29.546 9.01-41.066 13.024-16.2 31.346-35.065 35.913-42.278 27.373-43.093 105.56-164.223 130.713-183.688" fill="#463d81"/>
        <path d="M1882.273 1085.875s-48.399-8.973-78.091 12.88c-29.693 21.852-34.746 55.434-44.84 82.853-10.106 27.42-45.305 33.926-30.759 69.139 36.106 87.401 176.876 63.39 236.355 43.577 11.466-3.82.48-22.347-15.867-28.84-19.186-7.624-9.613-42.237 8.587-50.955 26.466-12.683 27.772-34.771 23.666-55.819-7.267-37.25-41.8-88.662-99.051-72.835" fill="#171f3e"/>
        <path d="M1939.805 1216.995s4.106-9.829 10.586-3.737c6.48 6.093 2.467 39.674-8.186 34.751-10.667-4.924-2.4-31.014-2.4-31.014" fill="#f89d63"/>
        <path d="M2141.626 1506.167s53.059-8.972 68.585-4.893c15.498 4.08 47.339 34.291 41.619 47.345-5.706 13.065-58.766-8.853-66.12-8.853h-52.505l8.42-33.599" fill="#f89d63"/>
        <path d="M1463.417 1348.295l49.905 32.719 72.118-13.44c-.986-5.826-5.76-29.959-10.093-51.81-.253-1.291-.52-2.579-.76-3.839-3.72-18.6-6.933-34.575-6.933-34.575l-67.358-29.722-25.12-11.081c.067.39 1.947 20.64 2.214 23.595 4.706 52.492-13.973 88.153-13.973 88.153" fill="#f89d63"/>
        <path d="M1650.105 1716.179h-314.112c28.786-192.835 70.425-371.524 120.077-386.116 22.013-6.466 139.77 31.605 139.77 31.605s18.453 48.305 30.573 109.85c3.853 19.533 15.146 141.69 23.692 244.661" fill="#284191"/>
        <path d="M1482.443 1261.07c14.8 25.058 69.918 46.726 92.904 54.694-.253-1.291-.52-2.579-.76-3.839-3.72-18.6-6.933-34.575-6.933-34.575l-67.358-29.722c-14.893-.204-23.96 3.128-17.853 13.442" fill="#f78f4e"/>
        <path d="M1593.054 1273.253s-108.518 33.85-128.557-34.05c-20.04-67.898-47.532-109.259 20.893-133.742 68.438-24.48 89.61-2.56 101.81 18.466 12.2 21.044 33.56 138.771 5.854 149.326" fill="#f89d63"/>
        <path d="M1582.934 1117.394s-6.92 79.011-23.253 75.58c-16.346-3.429-31.16-5.972-28.773 17.846 2.4 23.816 25.053 51.32-25.306 55.533-50.358 4.213-122.757-125.657-108.917-150.252 39.92-70.945 243.94-85.265 186.249 1.293" fill="#171f3e"/>
        <path d="M1566.974 1331.786c-1.4-.59-80.784-36.198-90.064-33.133-9.28 3.066-20.853 31.418-20.853 31.418l139.77 31.597s-11-22.36-28.853-29.882" fill="#203561"/>
        <path d="M1510.682 1342.428s333.872 123.81 394.284 127.437c60.412 3.613 179.595 20.76 236.74 36.266 0 0 5.094 9.96 2.907 17.28-3.667 12.252-11.333 16.319-11.333 16.319l-512.4-1.48-110.198-195.822" fill="#284191"/>
        <path d="M1456.057 1330.071s-78.998 7.424-95.331 31.61c-16.32 24.173-51.156 180.916-32.651 193.982 18.505 13.066 61.357 11.973 61.357 11.973l66.625-237.565" fill="#284191"/>
        <path d="M1279.655 1723.779h-51.21c-59.797 0-105.666 53.052-97.019 112.224l55.446 379.35c6.01 41.12 41.276 71.598 82.834 71.598h152.272l-142.323-563.172" fill="#d28f18"/>
        <path d="M3060.901 1723.77h51.208c59.796 0 105.674 53.054 97.027 112.225l-55.452 379.355c-6.001 41.119-41.278 71.6-82.833 71.6h-152.263l142.313-563.18" fill="#d28f18"/>
        <path d="M2952.025 2286.945H1393.88c-41.2 0-75.41-25.16-78.408-57.667l-57.538-623.994c-3.325-36.04 32.733-66.732 78.4-66.732h1669.983c45.541 0 81.554 30.518 78.428 66.467l-54.293 624.005c-2.842 32.614-37.112 57.921-78.428 57.921" fill="#ef9811"/>
        <path d="M1421.978 2286.951l-11.72 128.824c-.72 7.986 5.573 14.88 13.6 14.88a12.355 12.355 0 0 0 11.96-9.227l35.132-134.477h-48.972" fill="#171f3e"/>
        <path d="M2906.883 2286.945l11.713 128.828c.734 7.986-5.552 14.88-13.594 14.88a12.332 12.332 0 0 1-11.946-9.227l-35.157-134.481h48.984" fill="#171f3e"/>
        <path d="M0 2461.187h4179.32v-25.334H0" fill="#141b2d"/>
    </g>
</svg>
